<?xml version="1.0" encoding="UTF-8"?>
<svg width="502px" height="188px" viewBox="0 0 502 188" version="1.1" xmlns="http://www.w3.org/2000/svg" xmlns:xlink="http://www.w3.org/1999/xlink">
    <!-- Generator: Sketch 53.2 (72643) - https://sketchapp.com -->
    <title>user journey before</title>
    <desc>Created with Sketch.</desc>
    <g id="user-journey-before" stroke="none" stroke-width="1" fill="none" fill-rule="evenodd">
        <path d="M31.00009,63 L154.35805,63 C154.91033,63 155.35805,63.44773 155.35805,64 L155.35805,128.62265 C155.35805,129.17493 154.91033,129.62265 154.35805,129.62265 L31.00009,129.62265 C30.4478,129.62265 30.00009,129.17493 30.00009,128.62265 L30.00009,64 C30.00009,63.44773 30.4478,63 31.00009,63 L31.00009,63 Z" id="Path" fill="#FFFFFF" fill-rule="nonzero"></path>
        <path d="M377.00009,63 L500.35805,63 C500.91033,63 501.35805,63.44773 501.35805,64 L501.35805,128.62265 C501.35805,129.17493 500.91033,129.62265 500.35805,129.62265 L377.00009,129.62265 C376.4478,129.62265 376.00009,129.17493 376.00009,128.62265 L376.00009,64 C376.00009,63.44773 376.4478,63 377.00009,63 L377.00009,63 Z" id="Path-Copy-20" fill="#FFFFFF" fill-rule="nonzero"></path>
        <path d="M179.00009,63 L302.35805,63 C302.91033,63 303.35805,63.44773 303.35805,64 L303.35805,128.62265 C303.35805,129.17493 302.91033,129.62265 302.35805,129.62265 L179.00009,129.62265 C178.4478,129.62265 178.00009,129.17493 178.00009,128.62265 L178.00009,64 C178.00009,63.44773 178.4478,63 179.00009,63 L179.00009,63 Z" id="Path-Copy" fill="#FFFFFF" fill-rule="nonzero"></path>
        <path d="M5.44419425,1 L326.555806,1 C329.01029,1 331,5.47715 331,11 L331,177.2072 C331,182.73006 329.01029,187.2072 326.555806,187.2072 L5.44419425,187.2072 C2.98975465,187.2072 1,182.73006 1,177.2072 L1,11 C1,5.47715 2.98975465,1 5.44419425,1 Z" id="Path" stroke="#808080" stroke-linecap="round" stroke-linejoin="round"></path>
        <g id="Group" transform="translate(24.806600, 16.495500)" fill="#333333" font-family="Helvetica-Bold, Helvetica" font-size="18" font-weight="bold">
            <text id="Filters">
                <tspan x="0" y="18">Filters</tspan>
            </text>
        </g>
        <path d="M31.00009,63 L154.35805,63 C154.91033,63 155.35805,63.44773 155.35805,64 L155.35805,128.62265 C155.35805,129.17493 154.91033,129.62265 154.35805,129.62265 L31.00009,129.62265 C30.4478,129.62265 30.00009,129.17493 30.00009,128.62265 L30.00009,64 C30.00009,63.44773 30.4478,63 31.00009,63 L31.00009,63 Z" id="Path" stroke="#6E6F70" stroke-width="1.2" stroke-linecap="round" stroke-linejoin="round"></path>
        <path d="M377.00009,63 L500.35805,63 C500.91033,63 501.35805,63.44773 501.35805,64 L501.35805,128.62265 C501.35805,129.17493 500.91033,129.62265 500.35805,129.62265 L377.00009,129.62265 C376.4478,129.62265 376.00009,129.17493 376.00009,128.62265 L376.00009,64 C376.00009,63.44773 376.4478,63 377.00009,63 L377.00009,63 Z" id="Path-Copy-23" stroke="#6E6F70" stroke-width="1.2" stroke-linecap="round" stroke-linejoin="round"></path>
        <path d="M179.00009,63 L302.35805,63 C302.91033,63 303.35805,63.6451572 303.35805,64.4409514 L303.35805,157.559049 C303.35805,158.354857 302.91033,159 302.35805,159 L179.00009,159 C178.4478,159 178.00009,158.354857 178.00009,157.559049 L178.00009,64.4409514 C178.00009,63.6451572 178.4478,63 179.00009,63 L179.00009,63 Z" id="Path-Copy-2" stroke="#6E6F70" stroke-width="1.2" stroke-linecap="round" stroke-linejoin="round"></path>
        <path d="M184.255269,109 L215.744731,109 C215.885711,109 216,109.208332 216,109.465307 L216,139.534693 C216,139.791673 215.885711,140 215.744731,140 L184.255269,140 C184.114286,140 184,139.791673 184,139.534693 L184,109.465307 C184,109.208332 184.114286,109 184.255269,109 L184.255269,109 Z" id="Path-Copy-2" stroke="#6E6F70" stroke-width="1.2" stroke-linecap="round" stroke-linejoin="round"></path>
        <path d="M184.255269,148 L215.744731,148 C215.885711,148 216,148.073924 216,148.165109 L216,158.834891 C216,158.926077 215.885711,159 215.744731,159 L184.255269,159 C184.114286,159 184,158.926077 184,158.834891 L184,148.165109 C184,148.073924 184.114286,148 184.255269,148 L184.255269,148 Z" id="Path-Copy-25" stroke="#6E6F70" stroke-width="1.2" stroke-linecap="round" stroke-linejoin="round"></path>
        <path d="M224.263246,109 L256.736754,109 C256.882139,109 257,109.208332 257,109.465307 L257,139.534693 C257,139.791673 256.882139,140 256.736754,140 L224.263246,140 C224.117858,140 224,139.791673 224,139.534693 L224,109.465307 C224,109.208332 224.117858,109 224.263246,109 L224.263246,109 Z" id="Path-Copy-18" stroke="#6E6F70" stroke-width="1.2" stroke-linecap="round" stroke-linejoin="round"></path>
        <path d="M224.263246,148 L256.736754,148 C256.882139,148 257,148.073924 257,148.165109 L257,158.834891 C257,158.926077 256.882139,159 256.736754,159 L224.263246,159 C224.117858,159 224,158.926077 224,158.834891 L224,148.165109 C224,148.073924 224.117858,148 224.263246,148 L224.263246,148 Z" id="Path-Copy-28" stroke="#6E6F70" stroke-width="1.2" stroke-linecap="round" stroke-linejoin="round"></path>
        <path d="M264.255269,109 L295.744731,109 C295.885711,109 296,109.208332 296,109.465307 L296,139.534693 C296,139.791673 295.885711,140 295.744731,140 L264.255269,140 C264.114286,140 264,139.791673 264,139.534693 L264,109.465307 C264,109.208332 264.114286,109 264.255269,109 L264.255269,109 Z" id="Path-Copy-22" stroke="#6E6F70" stroke-width="1.2" stroke-linecap="round" stroke-linejoin="round"></path>
        <path d="M264.255269,148 L295.744731,148 C295.885711,148 296,148.073924 296,148.165109 L296,158.834891 C296,158.926077 295.885711,159 295.744731,159 L264.255269,159 C264.114286,159 264,158.926077 264,158.834891 L264,148.165109 C264,148.073924 264.114286,148 264.255269,148 L264.255269,148 Z" id="Path-Copy-31" stroke="#6E6F70" stroke-width="1.2" stroke-linecap="round" stroke-linejoin="round"></path>
        <polygon id="Path" fill="#F0F0F2" fill-rule="nonzero" points="31.0106 74.61873 154.69191 74.61873 154.69191 101.868888 31.0106 101.868888"></polygon>
        <polygon id="Path-Copy-26" fill="#F0F0F2" fill-rule="nonzero" points="377.0106 74.61873 500.69191 74.61873 500.69191 101.868888 377.0106 101.868888"></polygon>
        <polygon id="Path-Copy-3" fill="#F0F0F2" fill-rule="nonzero" points="179.0106 74.61873 302.69191 74.61873 302.69191 101.868888 179.0106 101.868888"></polygon>
        <text id="Ranges-Page" fill="#4C4C4C" font-family="Helvetica" font-size="10" font-weight="normal">
            <tspan x="62.199707" y="92">Ranges Page</tspan>
        </text>
        <text id="Product-Page" fill="#4C4C4C" font-family="Helvetica" font-size="10" font-weight="normal">
            <tspan x="408.202148" y="92">Product Page</tspan>
        </text>
        <text id="Listing-Page" fill="#4C4C4C" font-family="Helvetica" font-size="10" font-weight="normal">
            <tspan x="212.980469" y="92">Listing Page</tspan>
        </text>
        <path d="M31,63 L154.35795,63 C154.91025,63 155.35795,63.44773 155.35795,64 L155.35795,74.19503 C155.35795,74.74733 154.91025,75.19503 154.35795,75.19503 L31,75.19503 C30.44771,75.19503 30,74.74733 30,74.19503 L30,64 C30,63.44773 30.44771,63 31,63 Z" id="Path" fill="#FFFFFF" fill-rule="nonzero"></path>
        <path d="M377,63 L500.35795,63 C500.91025,63 501.35795,63.44773 501.35795,64 L501.35795,74.19503 C501.35795,74.74733 500.91025,75.19503 500.35795,75.19503 L377,75.19503 C376.44771,75.19503 376,74.74733 376,74.19503 L376,64 C376,63.44773 376.44771,63 377,63 Z" id="Path-Copy-29" fill="#FFFFFF" fill-rule="nonzero"></path>
        <path d="M179,63 L302.35795,63 C302.91025,63 303.35795,63.44773 303.35795,64 L303.35795,74.19503 C303.35795,74.74733 302.91025,75.19503 302.35795,75.19503 L179,75.19503 C178.44771,75.19503 178,74.74733 178,74.19503 L178,64 C178,63.44773 178.44771,63 179,63 Z" id="Path-Copy-4" fill="#FFFFFF" fill-rule="nonzero"></path>
        <path d="M31,63 L154.35795,63 C154.91025,63 155.35795,63.44773 155.35795,64 L155.35795,74.19503 C155.35795,74.74733 154.91025,75.19503 154.35795,75.19503 L31,75.19503 C30.44771,75.19503 30,74.74733 30,74.19503 L30,64 C30,63.44773 30.44771,63 31,63 Z" id="Path" stroke="#6E6F70" stroke-width="1.2" stroke-linecap="round" stroke-linejoin="round"></path>
        <path d="M377,63 L500.35795,63 C500.91025,63 501.35795,63.44773 501.35795,64 L501.35795,74.19503 C501.35795,74.74733 500.91025,75.19503 500.35795,75.19503 L377,75.19503 C376.44771,75.19503 376,74.74733 376,74.19503 L376,64 C376,63.44773 376.44771,63 377,63 Z" id="Path-Copy-32" stroke="#6E6F70" stroke-width="1.2" stroke-linecap="round" stroke-linejoin="round"></path>
        <path d="M179,63 L302.35795,63 C302.91025,63 303.35795,63.44773 303.35795,64 L303.35795,74.19503 C303.35795,74.74733 302.91025,75.19503 302.35795,75.19503 L179,75.19503 C178.44771,75.19503 178,74.74733 178,74.19503 L178,64 C178,63.44773 178.44771,63 179,63 Z" id="Path-Copy-5" stroke="#6E6F70" stroke-width="1.2" stroke-linecap="round" stroke-linejoin="round"></path>
        <polygon id="Path" fill="#6E6F70" fill-rule="nonzero" points="144.25767 65.91123 152.427605 65.91123 152.427605 67.055021 144.25767 67.055021"></polygon>
        <polygon id="Path-Copy-6" fill="#6E6F70" fill-rule="nonzero" points="292.25767 65.91123 300.427605 65.91123 300.427605 67.055021 292.25767 67.055021"></polygon>
        <polygon id="Path" fill="#6E6F70" fill-rule="nonzero" points="144.25767 68.52563 152.427605 68.52563 152.427605 69.669421 144.25767 69.669421"></polygon>
        <polygon id="Path-Copy-7" fill="#6E6F70" fill-rule="nonzero" points="292.25767 68.52563 300.427605 68.52563 300.427605 69.669421 292.25767 69.669421"></polygon>
        <polygon id="Path" fill="#6E6F70" fill-rule="nonzero" points="144.25767 71.14 152.427605 71.14 152.427605 72.283791 144.25767 72.283791"></polygon>
        <polygon id="Path-Copy-8" fill="#6E6F70" fill-rule="nonzero" points="292.25767 71.14 300.427605 71.14 300.427605 72.283791 292.25767 72.283791"></polygon>
        <path id="Line" d="M172.405271,99 L166.068894,95.4357878 L165.633106,95.1906571 L166.123367,94.3190816 L166.559155,94.5642122 L174.559155,99.0642122 L175.333889,99.5 L174.559155,99.9357878 L166.559155,104.435788 L166.123367,104.680918 L165.633106,103.809343 L166.068894,103.564212 L172.405271,100 L166.314024,100 L156.5,100 L156,100 L156,99 L156.5,99 L166.314024,99 L172.405271,99 Z" fill="#6E6F70" fill-rule="nonzero"></path>
        <path id="Line-Copy" d="M348.405271,99 L342.068894,95.4357878 L341.633106,95.1906571 L342.123367,94.3190816 L342.559155,94.5642122 L350.559155,99.0642122 L351.333889,99.5 L350.559155,99.9357878 L342.559155,104.435788 L342.123367,104.680918 L341.633106,103.809343 L342.068894,103.564212 L348.405271,100 L342.314024,100 L302.5,100 L302,100 L302,99 L302.5,99 L342.314024,99 L348.405271,99 Z" fill="#6E6F70" fill-rule="nonzero"></path>
    </g>
</svg>